{
    "type": "service_account",
    "project_id": "dopa-tech",
    "private_key_id": "b30583b1f26b856686069b84ccbbff0d48e27ab7",
    "private_key": "-----BEGIN PRIVATE KEY-----\nMIIEvAIBADANBgkqhkiG9w0BAQEFAASCBKYwggSiAgEAAoIBAQChAywp3Uyni1Y9\nE1diC1zetDvK67MW2XrwjR2m3treuFeGp+8ii1sIqz/Qh0t1+FtmO2IA6eUzVvJf\nBVjyJQzg46/el3qJD0+ZK7UuH1RYspqBMoMylvtpRsqHvuC+9JdrlGDylDbtiHIv\nU6Zn3IRykPU+mDj5YygNB9JVUFA51DDjOvXLn0lvqFN/5+x98KcxCztqSEjVf9zf\nY0Lp7hw4+TqDs+udRAbd89esxdMAHswqsecri8DHPmViF7Df5XjVjBF1qqycRV+3\n/3MMVyNjbT1dL8XywJdt0k/36eufRvtySuaIExtIYgaY8ms8zoMt8E2o4YvcH56/\nKBA5MjZLAgMBAAECggEAJk4yag1PiMah8CrTTayFXihD111mwGdiE6uG4+W97WGu\n1QbL4gyETlYreulNHxZEbFhxUuVSVXn4dHm5tPXyj+grNYoVKVlepwKaeowSjX2E\nO3twcg8wZdXlJhFXt6ZKBdqJi/yN6snc3HyKqMfyLK1m4wrk9xPLefoj5I8UXwVH\nJCAU9JpJ5EhktHC0h61PAo4e67Rag9jHAN6gR1BdPFYFhIQKcRjFL78034lF+6gj\nt6H4ENT1ou/k0Fz4+HsdLnXrSI/VLN9KtrZY10vPVqtGdrapcdz0rx+OAzasy2Fn\nHUXBTqp6Z8VixaowRhd6FjToS0KpJmXeq5OJa3R+BQKBgQDTU+ITjymdlrBmjiv5\nLXDDoqJhrw0D3QCmOITO3TKBBXwVmk+TWO6fkeZ+PkRd0M0DOoqHfdz/HvN+gPfV\npVt7UH/S2jHmS1uqARLhaQSWZ94iRXuLbkqLDF6hW+fIKOw97+0gM/OIYuJjhtcL\nQXAQC5D341DtQZCPrrTXuH7YpQKBgQDDDHMcsZcZ0npq2XW5232i6ocBOPDOAqGI\nNjkPbPakA9PwQTNuxGZgVcYpc2VuCyureCjCBke+L7nTbTdx/ZTTBo154YW71lX+\nOL/usx2Bmr/gfAPb7yec8TbpkPzs4DKWUmqKEkktzKKXv7UzAU7/EFxSdeQ4KdMC\nM2DnuGuwLwKBgEQ7STtXdfBTvxDdxoTljwsbb6JqiqE8sgD5Lqg78xqFUtMGx7qj\ndChBS1JneFtyFz97n06v7LLSo3us2Fg605a1HxBNMt9QZYA2aIovBjQpxSb7mDAk\npBzRGZyvt96AmAZHeSB0paTbiIzp9HTF5BDKKzxeQLrZ+HrrxagBAbOhAoGAKga/\nstoNDbJNUEKE3EQP4Q+ZgUjskeb9OSU9zDYVOqfcfbL+ywokaPNyXDISE9DyWuLs\nHUpPIQqVhpnMzZHvBD0wNKfEMgHvy3Qc3ujXHbrjRxJRnoz8QxOyWkc0SDHSlJMz\ng4aHIAgsrHfRKilJBSpYSig+wV85qQq7AZK6GV8CgYBDA19Mnn4Ab8agD1VNP2OT\nHwbDuV83ekgjSWU1QoMImxkEo1cSqXWnNvbIyUmNCmBOb9rLUG3EBlSIBteWlNPV\nHoQIKmJNfoBz72D+Gyk90gzPeRLJ6c/YLQbWH/OFyImq4gcSDRVHHSE1qfWKr9zz\nw58fY5EIaB83HfuEdtas5Q==\n-----END PRIVATE KEY-----\n",
    "client_email": "dopa-tech@dopa-tech.iam.gserviceaccount.com",
    "client_id": "101149341733609468584",
    "auth_uri": "https://accounts.google.com/o/oauth2/auth",
    "token_uri": "https://oauth2.googleapis.com/token",
    "auth_provider_x509_cert_url": "https://www.googleapis.com/oauth2/v1/certs",
    "client_x509_cert_url": "https://www.googleapis.com/robot/v1/metadata/x509/dopa-tech%40dopa-tech.iam.gserviceaccount.com"
  }
  